module gitlab.flux.utah.edu/openzms/zms-dst

go 1.20

require (
	github.com/gin-gonic/gin v1.9.1
	github.com/google/uuid v1.3.1
	github.com/gorilla/websocket v1.5.1
	github.com/rs/zerolog v1.31.0
	gitlab.flux.utah.edu/openzms/zms-api/go v0.0.0-20240926214447-40aa6145c019
	gitlab.flux.utah.edu/openzms/zms-lib-go v0.0.0-20240808231447-0c885820557d
	google.golang.org/grpc v1.60.1
	google.golang.org/protobuf v1.32.0
	gorm.io/datatypes v1.2.0
	gorm.io/driver/postgres v1.5.2
	gorm.io/driver/sqlite v1.5.2
	gorm.io/gorm v1.25.4
)

require (
	github.com/bytedance/sonic v1.9.2 // indirect
	github.com/chenzhuoyu/base64x v0.0.0-20221115062448-fe3a3abad311 // indirect
	github.com/envoyproxy/protoc-gen-validate v1.0.2 // indirect
	github.com/gabriel-vasile/mimetype v1.4.2 // indirect
	github.com/gin-contrib/sse v0.1.0 // indirect
	github.com/go-playground/locales v0.14.1 // indirect
	github.com/go-playground/universal-translator v0.18.1 // indirect
	github.com/go-playground/validator/v10 v10.14.1 // indirect
	github.com/go-sql-driver/mysql v1.7.0 // indirect
	github.com/goccy/go-json v0.10.2 // indirect
	github.com/golang/protobuf v1.5.3 // indirect
	github.com/jackc/pgpassfile v1.0.0 // indirect
	github.com/jackc/pgservicefile v0.0.0-20221227161230-091c0ba34f0a // indirect
	github.com/jackc/pgx/v5 v5.4.2 // indirect
	github.com/jinzhu/inflection v1.0.0 // indirect
	github.com/jinzhu/now v1.1.5 // indirect
	github.com/json-iterator/go v1.1.12 // indirect
	github.com/jxskiss/base62 v1.1.0 // indirect
	github.com/klauspost/cpuid/v2 v2.2.5 // indirect
	github.com/kr/text v0.2.0 // indirect
	github.com/leodido/go-urn v1.2.4 // indirect
	github.com/mattn/go-colorable v0.1.13 // indirect
	github.com/mattn/go-isatty v0.0.19 // indirect
	github.com/mattn/go-sqlite3 v1.14.17 // indirect
	github.com/modern-go/concurrent v0.0.0-20180306012644-bacd9c7ef1dd // indirect
	github.com/modern-go/reflect2 v1.0.2 // indirect
	github.com/pelletier/go-toml/v2 v2.0.8 // indirect
	github.com/rogpeppe/go-internal v1.12.0 // indirect
	github.com/twitchyliquid64/golang-asm v0.15.1 // indirect
	github.com/ugorji/go/codec v1.2.11 // indirect
	golang.org/x/arch v0.4.0 // indirect
	golang.org/x/crypto v0.14.0 // indirect
	golang.org/x/exp v0.0.0-20231219180239-dc181d75b848 // indirect
	golang.org/x/net v0.17.0 // indirect
	golang.org/x/sys v0.13.0 // indirect
	golang.org/x/text v0.13.0 // indirect
	google.golang.org/genproto/googleapis/rpc v0.0.0-20231002182017-d307bd883b97 // indirect
	gopkg.in/yaml.v3 v3.0.1 // indirect
	gorm.io/driver/mysql v1.4.7 // indirect
)
